team_09_tidyverse
…
We create an overlay histogram to visualize the distribution of both the first period grades (G1) and the final period grades (G3) in the same plot. This allows for comparison between the two distributions. The bins for G1 are colored dark red, and the bins for G3 are colored dark blue, both with black borders and slight transparency.

Discussion and Insights

The histograms provide a clear view of the distribution of grades. The first period grades (G1) and the final period grades (G3) show a similar pattern, suggesting consistency in student performance throughout the course. The overlay histogram helps to compare the two distributions directly, revealing any shifts or trends in performance from the first to the final period.

Task 3: Visualizing Michelson’s Speed-of-Light Measurements

library(tidyverse)
data(morley)
morley <- as_tibble(morley)
morley

# A tibble: 100 × 3
    Expt   Run Speed
   <int> <int> <int>
 1     1     1   850
 2     1     2   740
 3     1     3   900
 4     1     4  1070
 5     1     5   930
 6     1     6   850
 7     1     7   950
 8     1     8   980
 9     1     9   980
10     1    10   880
# ℹ 90 more rows

3.1 Convert Expt Column to Factor

morley <- morley %>% mutate(Expt = as.factor(Expt))
morley

# A tibble: 100 × 3
   Expt    Run Speed
   <fct> <int> <int>
 1 1         1   850
 2 1         2   740
 3 1         3   900
 4 1         4  1070
 5 1         5   930
 6 1         6   850
 7 1         7   950
 8 1         8   980
 9 1         9   980
10 1        10   880
# ℹ 90 more rows
…
